[
  {
    "name": "Application Start",
    "start": 1575593754014,
    "end": 1575593754154,
    "duration": 140,
    "pid": 9604,
    "index": 0
  },
  {
    "name": "Load Plugin",
    "start": 1575593754018,
    "end": 1575593754023,
    "duration": 5,
    "pid": 9604,
    "index": 1
  },
  {
    "name": "Load Config",
    "start": 1575593754023,
    "end": 1575593754033,
    "duration": 10,
    "pid": 9604,
    "index": 2
  },
  {
    "name": "Require(0) node_modules/egg-session/config/config.default.js",
    "start": 1575593754024,
    "end": 1575593754025,
    "duration": 1,
    "pid": 9604,
    "index": 3
  },
  {
    "name": "Require(1) node_modules/egg-security/config/config.default.js",
    "start": 1575593754025,
    "end": 1575593754025,
    "duration": 0,
    "pid": 9604,
    "index": 4
  },
  {
    "name": "Require(2) node_modules/egg-jsonp/config/config.default.js",
    "start": 1575593754026,
    "end": 1575593754026,
    "duration": 0,
    "pid": 9604,
    "index": 5
  },
  {
    "name": "Require(3) node_modules/egg-onerror/config/config.default.js",
    "start": 1575593754026,
    "end": 1575593754027,
    "duration": 1,
    "pid": 9604,
    "index": 6
  },
  {
    "name": "Require(4) node_modules/egg-i18n/config/config.default.js",
    "start": 1575593754027,
    "end": 1575593754027,
    "duration": 0,
    "pid": 9604,
    "index": 7
  },
  {
    "name": "Require(5) node_modules/egg-watcher/config/config.default.js",
    "start": 1575593754027,
    "end": 1575593754028,
    "duration": 1,
    "pid": 9604,
    "index": 8
  },
  {
    "name": "Require(6) node_modules/egg-multipart/config/config.default.js",
    "start": 1575593754028,
    "end": 1575593754028,
    "duration": 0,
    "pid": 9604,
    "index": 9
  },
  {
    "name": "Require(7) node_modules/egg-development/config/config.default.js",
    "start": 1575593754028,
    "end": 1575593754029,
    "duration": 1,
    "pid": 9604,
    "index": 10
  },
  {
    "name": "Require(8) node_modules/egg-logrotator/config/config.default.js",
    "start": 1575593754029,
    "end": 1575593754029,
    "duration": 0,
    "pid": 9604,
    "index": 11
  },
  {
    "name": "Require(9) node_modules/egg-static/config/config.default.js",
    "start": 1575593754029,
    "end": 1575593754029,
    "duration": 0,
    "pid": 9604,
    "index": 12
  },
  {
    "name": "Require(10) node_modules/egg-view/config/config.default.js",
    "start": 1575593754030,
    "end": 1575593754030,
    "duration": 0,
    "pid": 9604,
    "index": 13
  },
  {
    "name": "Require(11) node_modules/egg/config/config.default.js",
    "start": 1575593754030,
    "end": 1575593754031,
    "duration": 1,
    "pid": 9604,
    "index": 14
  },
  {
    "name": "Require(12) node_modules/egg-security/config/config.local.js",
    "start": 1575593754032,
    "end": 1575593754032,
    "duration": 0,
    "pid": 9604,
    "index": 15
  },
  {
    "name": "Require(13) node_modules/egg-watcher/config/config.local.js",
    "start": 1575593754032,
    "end": 1575593754032,
    "duration": 0,
    "pid": 9604,
    "index": 16
  },
  {
    "name": "Require(14) node_modules/egg-view/config/config.local.js",
    "start": 1575593754032,
    "end": 1575593754033,
    "duration": 1,
    "pid": 9604,
    "index": 17
  },
  {
    "name": "Require(15) node_modules/egg/config/config.local.js",
    "start": 1575593754033,
    "end": 1575593754033,
    "duration": 0,
    "pid": 9604,
    "index": 18
  },
  {
    "name": "Load extend/agent.js",
    "start": 1575593754039,
    "end": 1575593754067,
    "duration": 28,
    "pid": 9604,
    "index": 19
  },
  {
    "name": "Require(16) node_modules/egg-security/app/extend/agent.js",
    "start": 1575593754039,
    "end": 1575593754040,
    "duration": 1,
    "pid": 9604,
    "index": 20
  },
  {
    "name": "Require(17) node_modules/egg-schedule/app/extend/agent.js",
    "start": 1575593754040,
    "end": 1575593754066,
    "duration": 26,
    "pid": 9604,
    "index": 21
  },
  {
    "name": "Load agent.js",
    "start": 1575593754067,
    "end": 1575593754079,
    "duration": 12,
    "pid": 9604,
    "index": 22
  },
  {
    "name": "Require(18) node_modules/egg-security/agent.js",
    "start": 1575593754067,
    "end": 1575593754068,
    "duration": 1,
    "pid": 9604,
    "index": 23
  },
  {
    "name": "Require(19) node_modules/egg-onerror/agent.js",
    "start": 1575593754068,
    "end": 1575593754069,
    "duration": 1,
    "pid": 9604,
    "index": 24
  },
  {
    "name": "Require(20) node_modules/egg-watcher/agent.js",
    "start": 1575593754069,
    "end": 1575593754071,
    "duration": 2,
    "pid": 9604,
    "index": 25
  },
  {
    "name": "Before Start in node_modules/egg-watcher/agent.js:15:9",
    "start": 1575593754075,
    "end": 1575593754146,
    "duration": 71,
    "pid": 9604,
    "index": 26
  },
  {
    "name": "Require(21) node_modules/egg-development/agent.js",
    "start": 1575593754076,
    "end": 1575593754077,
    "duration": 1,
    "pid": 9604,
    "index": 27
  },
  {
    "name": "Before Start in node_modules/egg-development/agent.js:32:9",
    "start": 1575593754077,
    "end": 1575593754153,
    "duration": 76,
    "pid": 9604,
    "index": 28
  },
  {
    "name": "Require(22) node_modules/egg-schedule/agent.js",
    "start": 1575593754077,
    "end": 1575593754078,
    "duration": 1,
    "pid": 9604,
    "index": 29
  },
  {
    "name": "Before Start in node_modules/egg-schedule/agent.js:21:9",
    "start": 1575593754078,
    "end": 1575593754140,
    "duration": 62,
    "pid": 9604,
    "index": 30
  },
  {
    "name": "Require(23) node_modules/egg-logrotator/agent.js",
    "start": 1575593754079,
    "end": 1575593754079,
    "duration": 0,
    "pid": 9604,
    "index": 31
  }
]