{
  "config": {
    "session": {
      "maxAge": 86400000,
      "key": "EGG_SESS",
      "httpOnly": true,
      "encrypt": true
    },
    "security": {
      "domainWhiteList": [],
      "protocolWhiteList": [],
      "defaultMiddleware": "csrf,hsts,methodnoallow,noopen,nosniff,csp,xssProtection,xframe,dta",
      "csrf": {
        "enable": true,
        "ignoreJSON": false,
        "type": "ctoken",
        "useSession": false,
        "cookieName": "csrfToken",
        "sessionName": "csrfToken",
        "headerName": "x-csrf-token",
        "bodyName": "_csrf",
        "queryName": "_csrf",
        "refererWhiteList": []
      },
      "xframe": {
        "enable": true,
        "value": "SAMEORIGIN"
      },
      "hsts": {
        "enable": false,
        "maxAge": 31536000,
        "includeSubdomains": false
      },
      "dta": {
        "enable": true
      },
      "methodnoallow": {
        "enable": true
      },
      "noopen": {
        "enable": true
      },
      "nosniff": {
        "enable": true
      },
      "xssProtection": {
        "enable": true,
        "value": "1; mode=block"
      },
      "csp": {
        "enable": false,
        "policy": {}
      },
      "ssrf": {
        "ipBlackList": null,
        "checkAddress": null
      }
    },
    "helper": {
      "shtml": {}
    },
    "jsonp": {
      "limit": 50,
      "callback": [
        "_callback",
        "callback"
      ],
      "csrf": false
    },
    "onerror": {
      "errorPageUrl": "",
      "appErrorFilter": null
    },
    "i18n": {
      "defaultLocale": "en_US",
      "dirs": [],
      "queryField": "locale",
      "cookieField": "locale",
      "cookieMaxAge": "1y"
    },
    "watcher": {
      "type": "default",
      "eventSources": {
        "default": "/Users/yijunjie/Dev/egg/examples/schedule/node_modules/egg-watcher/lib/event-sources/default",
        "development": "/Users/yijunjie/Dev/egg/examples/schedule/node_modules/egg-watcher/lib/event-sources/development"
      }
    },
    "multipart": {
      "autoFields": false,
      "defaultCharset": "utf8",
      "fieldNameSize": 100,
      "fieldSize": "100kb",
      "fields": 10,
      "fileSize": "10mb",
      "files": 10,
      "fileExtensions": [],
      "whitelist": null
    },
    "logrotator": {
      "filesRotateByHour": null,
      "hourDelimiter": "-",
      "filesRotateBySize": null,
      "maxFileSize": 52428800,
      "maxFiles": 10,
      "rotateDuration": 60000,
      "maxDays": 31
    },
    "static": {
      "prefix": "/public/",
      "dir": "/Users/yijunjie/Dev/egg/examples/schedule/app/public",
      "dynamic": true,
      "preload": false,
      "buffer": true,
      "maxFiles": 1000,
      "maxAge": 31536000
    },
    "view": {
      "root": "/Users/yijunjie/Dev/egg/examples/schedule/app/view",
      "cache": true,
      "defaultExtension": ".html",
      "defaultViewEngine": "",
      "mapping": {}
    },
    "env": "prod",
    "name": "schedule-example",
    "keys": "<String len: 0>",
    "proxy": false,
    "maxIpsCount": 0,
    "maxProxyCount": 0,
    "protocolHeaders": "x-forwarded-proto",
    "ipHeaders": "x-forwarded-for",
    "hostHeaders": "",
    "pkg": {
      "name": "schedule-example",
      "dependencies": {
        "egg": "^1.10.1",
        "egg-scripts": "^2.11.1",
        "node-fetch": "^2.6.0"
      },
      "devDependencies": {
        "egg-bin": "^4.3.5",
        "egg-mock": "^3.13.1"
      },
      "scripts": {
        "dev": "egg-bin dev",
        "test": "egg-bin test",
        "cov": "egg-bin cov",
        "start": "egg-scripts start --daemon",
        "stop": "egg-scripts stop"
      },
      "private": true
    },
    "baseDir": "/Users/yijunjie/Dev/egg/examples/schedule",
    "HOME": "/Users/yijunjie",
    "rundir": "/Users/yijunjie/Dev/egg/examples/schedule/run",
    "dump": {
      "ignore": "<Set>"
    },
    "confusedConfigurations": {
      "bodyparser": "bodyParser",
      "notFound": "notfound",
      "sitefile": "siteFile",
      "middlewares": "middleware",
      "httpClient": "httpclient"
    },
    "notfound": {
      "pageUrl": ""
    },
    "siteFile": {
      "/favicon.ico": "<Buffer len: 14191>"
    },
    "bodyParser": {
      "enable": true,
      "encoding": "utf8",
      "formLimit": "100kb",
      "jsonLimit": "100kb",
      "strict": true,
      "queryString": {
        "arrayLimit": 100,
        "depth": 5,
        "parameterLimit": 1000
      }
    },
    "logger": {
      "dir": "/Users/yijunjie/logs/schedule-example",
      "encoding": "utf8",
      "env": "prod",
      "level": "INFO",
      "consoleLevel": "INFO",
      "disableConsoleAfterReady": true,
      "outputJSON": false,
      "buffer": true,
      "appLogName": "schedule-example-web.log",
      "coreLogName": "egg-web.log",
      "agentLogName": "egg-agent.log",
      "errorLogName": "common-error.log",
      "coreLogger": {},
      "allowDebugAtProd": false,
      "type": "agent"
    },
    "httpclient": {
      "enableDNSCache": false,
      "dnsCacheMaxLength": 1000,
      "dnsCacheMaxAge": 10000,
      "request": {
        "timeout": 5000
      },
      "httpAgent": {
        "keepAlive": true,
        "freeSocketKeepAliveTimeout": 4000,
        "maxSockets": 9007199254740991,
        "maxFreeSockets": 256
      },
      "httpsAgent": {
        "keepAlive": true,
        "freeSocketKeepAliveTimeout": 4000,
        "maxSockets": 9007199254740991,
        "maxFreeSockets": 256
      }
    },
    "coreMiddleware": [
      "meta",
      "siteFile",
      "notfound",
      "bodyParser",
      "overrideMethod"
    ],
    "workerStartTimeout": 600000,
    "cluster": {
      "listen": {
        "path": "",
        "port": 7001,
        "hostname": ""
      }
    },
    "clusterClient": {
      "maxWaitTime": 60000,
      "responseTimeout": 60000
    },
    "coreMiddlewares": "~config~coreMiddleware",
    "appMiddlewares": [],
    "appMiddleware": "~config~appMiddlewares"
  },
  "plugins": {
    "session": {
      "enable": true,
      "package": "egg-session",
      "name": "session",
      "dependencies": [],
      "optionalDependencies": [],
      "env": [],
      "from": "/Users/yijunjie/Dev/egg/examples/schedule/node_modules/egg/config/plugin.js",
      "path": "/Users/yijunjie/Dev/egg/examples/schedule/node_modules/egg-session",
      "version": "2.2.0"
    },
    "security": {
      "enable": true,
      "package": "egg-security",
      "name": "security",
      "dependencies": [],
      "optionalDependencies": [
        "session"
      ],
      "env": [],
      "from": "/Users/yijunjie/Dev/egg/examples/schedule/node_modules/egg/config/plugin.js",
      "path": "/Users/yijunjie/Dev/egg/examples/schedule/node_modules/egg-security",
      "version": "1.14.0"
    },
    "jsonp": {
      "enable": true,
      "package": "egg-jsonp",
      "name": "jsonp",
      "dependencies": [],
      "optionalDependencies": [
        "security"
      ],
      "env": [],
      "from": "/Users/yijunjie/Dev/egg/examples/schedule/node_modules/egg/config/plugin.js",
      "path": "/Users/yijunjie/Dev/egg/examples/schedule/node_modules/egg-jsonp",
      "version": "1.2.2"
    },
    "onerror": {
      "enable": true,
      "package": "egg-onerror",
      "name": "onerror",
      "dependencies": [],
      "optionalDependencies": [
        "jsonp"
      ],
      "env": [],
      "from": "/Users/yijunjie/Dev/egg/examples/schedule/node_modules/egg/config/plugin.js",
      "path": "/Users/yijunjie/Dev/egg/examples/schedule/node_modules/egg-onerror",
      "version": "1.6.0"
    },
    "i18n": {
      "enable": true,
      "package": "egg-i18n",
      "name": "i18n",
      "dependencies": [],
      "optionalDependencies": [],
      "env": [],
      "from": "/Users/yijunjie/Dev/egg/examples/schedule/node_modules/egg/config/plugin.js",
      "path": "/Users/yijunjie/Dev/egg/examples/schedule/node_modules/egg-i18n",
      "version": "1.2.0"
    },
    "watcher": {
      "enable": true,
      "package": "egg-watcher",
      "name": "watcher",
      "dependencies": [],
      "optionalDependencies": [],
      "env": [],
      "from": "/Users/yijunjie/Dev/egg/examples/schedule/node_modules/egg/config/plugin.js",
      "path": "/Users/yijunjie/Dev/egg/examples/schedule/node_modules/egg-watcher",
      "version": "2.2.0"
    },
    "multipart": {
      "enable": true,
      "package": "egg-multipart",
      "name": "multipart",
      "dependencies": [],
      "optionalDependencies": [],
      "env": [],
      "from": "/Users/yijunjie/Dev/egg/examples/schedule/node_modules/egg/config/plugin.js",
      "path": "/Users/yijunjie/Dev/egg/examples/schedule/node_modules/egg-multipart",
      "version": "1.5.1"
    },
    "schedule": {
      "enable": true,
      "package": "egg-schedule",
      "name": "schedule",
      "dependencies": [],
      "optionalDependencies": [],
      "env": [],
      "from": "/Users/yijunjie/Dev/egg/examples/schedule/node_modules/egg/config/plugin.js",
      "path": "/Users/yijunjie/Dev/egg/examples/schedule/node_modules/egg-schedule",
      "version": "2.6.0"
    },
    "logrotator": {
      "enable": true,
      "package": "egg-logrotator",
      "name": "logrotator",
      "dependencies": [
        "schedule"
      ],
      "optionalDependencies": [],
      "env": [],
      "from": "/Users/yijunjie/Dev/egg/examples/schedule/node_modules/egg/config/plugin.js",
      "path": "/Users/yijunjie/Dev/egg/examples/schedule/node_modules/egg-logrotator",
      "version": "2.3.3"
    },
    "static": {
      "enable": true,
      "package": "egg-static",
      "name": "static",
      "dependencies": [],
      "optionalDependencies": [],
      "env": [],
      "from": "/Users/yijunjie/Dev/egg/examples/schedule/node_modules/egg/config/plugin.js",
      "path": "/Users/yijunjie/Dev/egg/examples/schedule/node_modules/egg-static",
      "version": "1.5.1"
    },
    "view": {
      "enable": true,
      "package": "egg-view",
      "name": "view",
      "dependencies": [],
      "optionalDependencies": [],
      "env": [],
      "from": "/Users/yijunjie/Dev/egg/examples/schedule/node_modules/egg/config/plugin.js",
      "path": "/Users/yijunjie/Dev/egg/examples/schedule/node_modules/egg-view",
      "version": "1.2.0"
    }
  }
}