[
  {
    "name": "Application Start",
    "start": 1575870100436,
    "end": 1575870100655,
    "duration": 219,
    "pid": 20894,
    "index": 0
  },
  {
    "name": "Load Plugin",
    "start": 1575870100439,
    "end": 1575870100446,
    "duration": 7,
    "pid": 20894,
    "index": 1
  },
  {
    "name": "Load Config",
    "start": 1575870100446,
    "end": 1575870100451,
    "duration": 5,
    "pid": 20894,
    "index": 2
  },
  {
    "name": "Require(0) node_modules/egg-session/config/config.default.js",
    "start": 1575870100446,
    "end": 1575870100446,
    "duration": 0,
    "pid": 20894,
    "index": 3
  },
  {
    "name": "Require(1) node_modules/egg-security/config/config.default.js",
    "start": 1575870100447,
    "end": 1575870100447,
    "duration": 0,
    "pid": 20894,
    "index": 4
  },
  {
    "name": "Require(2) node_modules/egg-jsonp/config/config.default.js",
    "start": 1575870100447,
    "end": 1575870100447,
    "duration": 0,
    "pid": 20894,
    "index": 5
  },
  {
    "name": "Require(3) node_modules/egg-onerror/config/config.default.js",
    "start": 1575870100447,
    "end": 1575870100448,
    "duration": 1,
    "pid": 20894,
    "index": 6
  },
  {
    "name": "Require(4) node_modules/egg-i18n/config/config.default.js",
    "start": 1575870100448,
    "end": 1575870100448,
    "duration": 0,
    "pid": 20894,
    "index": 7
  },
  {
    "name": "Require(5) node_modules/egg-watcher/config/config.default.js",
    "start": 1575870100448,
    "end": 1575870100448,
    "duration": 0,
    "pid": 20894,
    "index": 8
  },
  {
    "name": "Require(6) node_modules/egg-multipart/config/config.default.js",
    "start": 1575870100448,
    "end": 1575870100449,
    "duration": 1,
    "pid": 20894,
    "index": 9
  },
  {
    "name": "Require(7) node_modules/egg-logrotator/config/config.default.js",
    "start": 1575870100449,
    "end": 1575870100449,
    "duration": 0,
    "pid": 20894,
    "index": 10
  },
  {
    "name": "Require(8) node_modules/egg-static/config/config.default.js",
    "start": 1575870100449,
    "end": 1575870100449,
    "duration": 0,
    "pid": 20894,
    "index": 11
  },
  {
    "name": "Require(9) node_modules/egg-view/config/config.default.js",
    "start": 1575870100449,
    "end": 1575870100449,
    "duration": 0,
    "pid": 20894,
    "index": 12
  },
  {
    "name": "Require(10) node_modules/egg/config/config.default.js",
    "start": 1575870100449,
    "end": 1575870100450,
    "duration": 1,
    "pid": 20894,
    "index": 13
  },
  {
    "name": "Require(11) node_modules/egg-static/config/config.prod.js",
    "start": 1575870100451,
    "end": 1575870100451,
    "duration": 0,
    "pid": 20894,
    "index": 14
  },
  {
    "name": "Load extend/application.js",
    "start": 1575870100452,
    "end": 1575870100457,
    "duration": 5,
    "pid": 20894,
    "index": 15
  },
  {
    "name": "Require(12) node_modules/egg-session/app/extend/application.js",
    "start": 1575870100452,
    "end": 1575870100452,
    "duration": 0,
    "pid": 20894,
    "index": 16
  },
  {
    "name": "Require(13) node_modules/egg-security/app/extend/application.js",
    "start": 1575870100452,
    "end": 1575870100453,
    "duration": 1,
    "pid": 20894,
    "index": 17
  },
  {
    "name": "Require(14) node_modules/egg-jsonp/app/extend/application.js",
    "start": 1575870100453,
    "end": 1575870100453,
    "duration": 0,
    "pid": 20894,
    "index": 18
  },
  {
    "name": "Require(15) node_modules/egg-logrotator/app/extend/application.js",
    "start": 1575870100454,
    "end": 1575870100456,
    "duration": 2,
    "pid": 20894,
    "index": 19
  },
  {
    "name": "Require(16) node_modules/egg-view/app/extend/application.js",
    "start": 1575870100456,
    "end": 1575870100457,
    "duration": 1,
    "pid": 20894,
    "index": 20
  },
  {
    "name": "Load extend/request.js",
    "start": 1575870100457,
    "end": 1575870100459,
    "duration": 2,
    "pid": 20894,
    "index": 21
  },
  {
    "name": "Require(17) node_modules/egg/app/extend/request.js",
    "start": 1575870100457,
    "end": 1575870100458,
    "duration": 1,
    "pid": 20894,
    "index": 22
  },
  {
    "name": "Load extend/response.js",
    "start": 1575870100459,
    "end": 1575870100462,
    "duration": 3,
    "pid": 20894,
    "index": 23
  },
  {
    "name": "Require(18) node_modules/egg/app/extend/response.js",
    "start": 1575870100459,
    "end": 1575870100461,
    "duration": 2,
    "pid": 20894,
    "index": 24
  },
  {
    "name": "Load extend/context.js",
    "start": 1575870100462,
    "end": 1575870100486,
    "duration": 24,
    "pid": 20894,
    "index": 25
  },
  {
    "name": "Require(19) node_modules/egg-security/app/extend/context.js",
    "start": 1575870100462,
    "end": 1575870100465,
    "duration": 3,
    "pid": 20894,
    "index": 26
  },
  {
    "name": "Require(20) node_modules/egg-jsonp/app/extend/context.js",
    "start": 1575870100465,
    "end": 1575870100466,
    "duration": 1,
    "pid": 20894,
    "index": 27
  },
  {
    "name": "Require(21) node_modules/egg-i18n/app/extend/context.js",
    "start": 1575870100466,
    "end": 1575870100466,
    "duration": 0,
    "pid": 20894,
    "index": 28
  },
  {
    "name": "Require(22) node_modules/egg-multipart/app/extend/context.js",
    "start": 1575870100466,
    "end": 1575870100484,
    "duration": 18,
    "pid": 20894,
    "index": 29
  },
  {
    "name": "Require(23) node_modules/egg-view/app/extend/context.js",
    "start": 1575870100485,
    "end": 1575870100485,
    "duration": 0,
    "pid": 20894,
    "index": 30
  },
  {
    "name": "Require(24) node_modules/egg/app/extend/context.js",
    "start": 1575870100485,
    "end": 1575870100486,
    "duration": 1,
    "pid": 20894,
    "index": 31
  },
  {
    "name": "Load extend/helper.js",
    "start": 1575870100486,
    "end": 1575870100495,
    "duration": 9,
    "pid": 20894,
    "index": 32
  },
  {
    "name": "Require(25) node_modules/egg-security/app/extend/helper.js",
    "start": 1575870100486,
    "end": 1575870100494,
    "duration": 8,
    "pid": 20894,
    "index": 33
  },
  {
    "name": "Require(26) node_modules/egg/app/extend/helper.js",
    "start": 1575870100494,
    "end": 1575870100494,
    "duration": 0,
    "pid": 20894,
    "index": 34
  },
  {
    "name": "Load app.js",
    "start": 1575870100495,
    "end": 1575870100569,
    "duration": 74,
    "pid": 20894,
    "index": 35
  },
  {
    "name": "Require(27) node_modules/egg-session/app.js",
    "start": 1575870100495,
    "end": 1575870100495,
    "duration": 0,
    "pid": 20894,
    "index": 36
  },
  {
    "name": "Require(28) node_modules/egg-security/app.js",
    "start": 1575870100495,
    "end": 1575870100496,
    "duration": 1,
    "pid": 20894,
    "index": 37
  },
  {
    "name": "Require(29) node_modules/egg-onerror/app.js",
    "start": 1575870100496,
    "end": 1575870100499,
    "duration": 3,
    "pid": 20894,
    "index": 38
  },
  {
    "name": "Require(30) node_modules/egg-i18n/app.js",
    "start": 1575870100500,
    "end": 1575870100502,
    "duration": 2,
    "pid": 20894,
    "index": 39
  },
  {
    "name": "Require(31) node_modules/egg-watcher/app.js",
    "start": 1575870100502,
    "end": 1575870100503,
    "duration": 1,
    "pid": 20894,
    "index": 40
  },
  {
    "name": "Before Start in node_modules/egg-watcher/app.js:15:7",
    "start": 1575870100510,
    "end": 1575870100655,
    "duration": 145,
    "pid": 20894,
    "index": 41
  },
  {
    "name": "Require(32) node_modules/egg-multipart/app.js",
    "start": 1575870100511,
    "end": 1575870100512,
    "duration": 1,
    "pid": 20894,
    "index": 42
  },
  {
    "name": "Require(33) node_modules/egg-schedule/app.js",
    "start": 1575870100512,
    "end": 1575870100513,
    "duration": 1,
    "pid": 20894,
    "index": 43
  },
  {
    "name": "Require(34) node_modules/egg-logrotator/app.js",
    "start": 1575870100569,
    "end": 1575870100569,
    "duration": 0,
    "pid": 20894,
    "index": 44
  },
  {
    "name": "Require(35) node_modules/egg-static/app.js",
    "start": 1575870100569,
    "end": 1575870100569,
    "duration": 0,
    "pid": 20894,
    "index": 45
  },
  {
    "name": "Load Service",
    "start": 1575870100569,
    "end": 1575870100571,
    "duration": 2,
    "pid": 20894,
    "index": 46
  },
  {
    "name": "Load \"service\" to Context",
    "start": 1575870100570,
    "end": 1575870100571,
    "duration": 1,
    "pid": 20894,
    "index": 47
  },
  {
    "name": "Load Middleware",
    "start": 1575870100571,
    "end": 1575870100613,
    "duration": 42,
    "pid": 20894,
    "index": 48
  },
  {
    "name": "Load \"middlewares\" to Application",
    "start": 1575870100571,
    "end": 1575870100595,
    "duration": 24,
    "pid": 20894,
    "index": 49
  },
  {
    "name": "Load Controller",
    "start": 1575870100613,
    "end": 1575870100614,
    "duration": 1,
    "pid": 20894,
    "index": 50
  },
  {
    "name": "Load \"controller\" to Application",
    "start": 1575870100614,
    "end": 1575870100614,
    "duration": 0,
    "pid": 20894,
    "index": 51
  },
  {
    "name": "Load Router",
    "start": 1575870100614,
    "end": 1575870100614,
    "duration": 0,
    "pid": 20894,
    "index": 52
  },
  {
    "name": "Before Start in node_modules/egg-core/lib/egg.js:330:10",
    "start": 1575870100617,
    "end": 1575870100622,
    "duration": 5,
    "pid": 20894,
    "index": 53
  }
]