{
  "session": {
    "maxAge": "/Users/yijunjie/Dev/egg/examples/schedule/node_modules/egg-session/config/config.default.js",
    "key": "/Users/yijunjie/Dev/egg/examples/schedule/node_modules/egg-session/config/config.default.js",
    "httpOnly": "/Users/yijunjie/Dev/egg/examples/schedule/node_modules/egg-session/config/config.default.js",
    "encrypt": "/Users/yijunjie/Dev/egg/examples/schedule/node_modules/egg-session/config/config.default.js"
  },
  "security": {
    "domainWhiteList": "/Users/yijunjie/Dev/egg/examples/schedule/node_modules/egg-security/config/config.default.js",
    "protocolWhiteList": "/Users/yijunjie/Dev/egg/examples/schedule/node_modules/egg-security/config/config.default.js",
    "defaultMiddleware": "/Users/yijunjie/Dev/egg/examples/schedule/node_modules/egg-security/config/config.default.js",
    "csrf": {
      "enable": "/Users/yijunjie/Dev/egg/examples/schedule/node_modules/egg-security/config/config.default.js",
      "ignoreJSON": "/Users/yijunjie/Dev/egg/examples/schedule/node_modules/egg-security/config/config.default.js",
      "type": "/Users/yijunjie/Dev/egg/examples/schedule/node_modules/egg-security/config/config.default.js",
      "useSession": "/Users/yijunjie/Dev/egg/examples/schedule/node_modules/egg-security/config/config.default.js",
      "cookieName": "/Users/yijunjie/Dev/egg/examples/schedule/node_modules/egg-security/config/config.default.js",
      "sessionName": "/Users/yijunjie/Dev/egg/examples/schedule/node_modules/egg-security/config/config.default.js",
      "headerName": "/Users/yijunjie/Dev/egg/examples/schedule/node_modules/egg-security/config/config.default.js",
      "bodyName": "/Users/yijunjie/Dev/egg/examples/schedule/node_modules/egg-security/config/config.default.js",
      "queryName": "/Users/yijunjie/Dev/egg/examples/schedule/node_modules/egg-security/config/config.default.js",
      "refererWhiteList": "/Users/yijunjie/Dev/egg/examples/schedule/node_modules/egg-security/config/config.default.js"
    },
    "xframe": {
      "enable": "/Users/yijunjie/Dev/egg/examples/schedule/node_modules/egg-security/config/config.default.js",
      "value": "/Users/yijunjie/Dev/egg/examples/schedule/node_modules/egg-security/config/config.default.js"
    },
    "hsts": {
      "enable": "/Users/yijunjie/Dev/egg/examples/schedule/node_modules/egg-security/config/config.default.js",
      "maxAge": "/Users/yijunjie/Dev/egg/examples/schedule/node_modules/egg-security/config/config.default.js",
      "includeSubdomains": "/Users/yijunjie/Dev/egg/examples/schedule/node_modules/egg-security/config/config.default.js"
    },
    "dta": {
      "enable": "/Users/yijunjie/Dev/egg/examples/schedule/node_modules/egg-security/config/config.default.js"
    },
    "methodnoallow": {
      "enable": "/Users/yijunjie/Dev/egg/examples/schedule/node_modules/egg-security/config/config.default.js"
    },
    "noopen": {
      "enable": "/Users/yijunjie/Dev/egg/examples/schedule/node_modules/egg-security/config/config.default.js"
    },
    "nosniff": {
      "enable": "/Users/yijunjie/Dev/egg/examples/schedule/node_modules/egg-security/config/config.default.js"
    },
    "xssProtection": {
      "enable": "/Users/yijunjie/Dev/egg/examples/schedule/node_modules/egg-security/config/config.default.js",
      "value": "/Users/yijunjie/Dev/egg/examples/schedule/node_modules/egg-security/config/config.default.js"
    },
    "csp": {
      "enable": "/Users/yijunjie/Dev/egg/examples/schedule/node_modules/egg-security/config/config.default.js",
      "policy": "/Users/yijunjie/Dev/egg/examples/schedule/node_modules/egg-security/config/config.default.js"
    },
    "ssrf": {
      "ipBlackList": "/Users/yijunjie/Dev/egg/examples/schedule/node_modules/egg-security/config/config.default.js",
      "checkAddress": "/Users/yijunjie/Dev/egg/examples/schedule/node_modules/egg-security/config/config.default.js"
    }
  },
  "helper": {
    "shtml": "/Users/yijunjie/Dev/egg/examples/schedule/node_modules/egg-security/config/config.default.js"
  },
  "jsonp": {
    "limit": "/Users/yijunjie/Dev/egg/examples/schedule/node_modules/egg-jsonp/config/config.default.js",
    "callback": "/Users/yijunjie/Dev/egg/examples/schedule/node_modules/egg-jsonp/config/config.default.js",
    "csrf": "/Users/yijunjie/Dev/egg/examples/schedule/node_modules/egg-jsonp/config/config.default.js"
  },
  "onerror": {
    "errorPageUrl": "/Users/yijunjie/Dev/egg/examples/schedule/node_modules/egg-onerror/config/config.default.js",
    "appErrorFilter": "/Users/yijunjie/Dev/egg/examples/schedule/node_modules/egg-onerror/config/config.default.js"
  },
  "i18n": {
    "defaultLocale": "/Users/yijunjie/Dev/egg/examples/schedule/node_modules/egg-i18n/config/config.default.js",
    "dirs": "/Users/yijunjie/Dev/egg/examples/schedule/node_modules/egg-i18n/config/config.default.js",
    "queryField": "/Users/yijunjie/Dev/egg/examples/schedule/node_modules/egg-i18n/config/config.default.js",
    "cookieField": "/Users/yijunjie/Dev/egg/examples/schedule/node_modules/egg-i18n/config/config.default.js",
    "cookieMaxAge": "/Users/yijunjie/Dev/egg/examples/schedule/node_modules/egg-i18n/config/config.default.js"
  },
  "watcher": {
    "type": "/Users/yijunjie/Dev/egg/examples/schedule/node_modules/egg-watcher/config/config.default.js",
    "eventSources": {
      "default": "/Users/yijunjie/Dev/egg/examples/schedule/node_modules/egg-watcher/config/config.default.js",
      "development": "/Users/yijunjie/Dev/egg/examples/schedule/node_modules/egg-watcher/config/config.default.js"
    }
  },
  "multipart": {
    "autoFields": "/Users/yijunjie/Dev/egg/examples/schedule/node_modules/egg-multipart/config/config.default.js",
    "defaultCharset": "/Users/yijunjie/Dev/egg/examples/schedule/node_modules/egg-multipart/config/config.default.js",
    "fieldNameSize": "/Users/yijunjie/Dev/egg/examples/schedule/node_modules/egg-multipart/config/config.default.js",
    "fieldSize": "/Users/yijunjie/Dev/egg/examples/schedule/node_modules/egg-multipart/config/config.default.js",
    "fields": "/Users/yijunjie/Dev/egg/examples/schedule/node_modules/egg-multipart/config/config.default.js",
    "fileSize": "/Users/yijunjie/Dev/egg/examples/schedule/node_modules/egg-multipart/config/config.default.js",
    "files": "/Users/yijunjie/Dev/egg/examples/schedule/node_modules/egg-multipart/config/config.default.js",
    "fileExtensions": "/Users/yijunjie/Dev/egg/examples/schedule/node_modules/egg-multipart/config/config.default.js",
    "whitelist": "/Users/yijunjie/Dev/egg/examples/schedule/node_modules/egg-multipart/config/config.default.js"
  },
  "logrotator": {
    "filesRotateByHour": "/Users/yijunjie/Dev/egg/examples/schedule/node_modules/egg-logrotator/config/config.default.js",
    "hourDelimiter": "/Users/yijunjie/Dev/egg/examples/schedule/node_modules/egg-logrotator/config/config.default.js",
    "filesRotateBySize": "/Users/yijunjie/Dev/egg/examples/schedule/node_modules/egg-logrotator/config/config.default.js",
    "maxFileSize": "/Users/yijunjie/Dev/egg/examples/schedule/node_modules/egg-logrotator/config/config.default.js",
    "maxFiles": "/Users/yijunjie/Dev/egg/examples/schedule/node_modules/egg-logrotator/config/config.default.js",
    "rotateDuration": "/Users/yijunjie/Dev/egg/examples/schedule/node_modules/egg-logrotator/config/config.default.js",
    "maxDays": "/Users/yijunjie/Dev/egg/examples/schedule/node_modules/egg-logrotator/config/config.default.js"
  },
  "static": {
    "prefix": "/Users/yijunjie/Dev/egg/examples/schedule/node_modules/egg-static/config/config.default.js",
    "dir": "/Users/yijunjie/Dev/egg/examples/schedule/node_modules/egg-static/config/config.default.js",
    "dynamic": "/Users/yijunjie/Dev/egg/examples/schedule/node_modules/egg-static/config/config.default.js",
    "preload": "/Users/yijunjie/Dev/egg/examples/schedule/node_modules/egg-static/config/config.default.js",
    "buffer": "/Users/yijunjie/Dev/egg/examples/schedule/node_modules/egg-static/config/config.prod.js",
    "maxFiles": "/Users/yijunjie/Dev/egg/examples/schedule/node_modules/egg-static/config/config.default.js",
    "maxAge": "/Users/yijunjie/Dev/egg/examples/schedule/node_modules/egg-static/config/config.prod.js"
  },
  "view": {
    "root": "/Users/yijunjie/Dev/egg/examples/schedule/node_modules/egg-view/config/config.default.js",
    "cache": "/Users/yijunjie/Dev/egg/examples/schedule/node_modules/egg-view/config/config.default.js",
    "defaultExtension": "/Users/yijunjie/Dev/egg/examples/schedule/node_modules/egg-view/config/config.default.js",
    "defaultViewEngine": "/Users/yijunjie/Dev/egg/examples/schedule/node_modules/egg-view/config/config.default.js",
    "mapping": "/Users/yijunjie/Dev/egg/examples/schedule/node_modules/egg-view/config/config.default.js"
  },
  "env": "/Users/yijunjie/Dev/egg/examples/schedule/node_modules/egg/config/config.default.js",
  "name": "/Users/yijunjie/Dev/egg/examples/schedule/node_modules/egg/config/config.default.js",
  "keys": "/Users/yijunjie/Dev/egg/examples/schedule/node_modules/egg/config/config.default.js",
  "proxy": "/Users/yijunjie/Dev/egg/examples/schedule/node_modules/egg/config/config.default.js",
  "maxIpsCount": "/Users/yijunjie/Dev/egg/examples/schedule/node_modules/egg/config/config.default.js",
  "maxProxyCount": "/Users/yijunjie/Dev/egg/examples/schedule/node_modules/egg/config/config.default.js",
  "protocolHeaders": "/Users/yijunjie/Dev/egg/examples/schedule/node_modules/egg/config/config.default.js",
  "ipHeaders": "/Users/yijunjie/Dev/egg/examples/schedule/node_modules/egg/config/config.default.js",
  "hostHeaders": "/Users/yijunjie/Dev/egg/examples/schedule/node_modules/egg/config/config.default.js",
  "pkg": {
    "name": "/Users/yijunjie/Dev/egg/examples/schedule/node_modules/egg/config/config.default.js",
    "dependencies": {
      "egg": "/Users/yijunjie/Dev/egg/examples/schedule/node_modules/egg/config/config.default.js",
      "egg-scripts": "/Users/yijunjie/Dev/egg/examples/schedule/node_modules/egg/config/config.default.js",
      "node-fetch": "/Users/yijunjie/Dev/egg/examples/schedule/node_modules/egg/config/config.default.js"
    },
    "devDependencies": {
      "egg-bin": "/Users/yijunjie/Dev/egg/examples/schedule/node_modules/egg/config/config.default.js",
      "egg-mock": "/Users/yijunjie/Dev/egg/examples/schedule/node_modules/egg/config/config.default.js"
    },
    "scripts": {
      "dev": "/Users/yijunjie/Dev/egg/examples/schedule/node_modules/egg/config/config.default.js",
      "test": "/Users/yijunjie/Dev/egg/examples/schedule/node_modules/egg/config/config.default.js",
      "cov": "/Users/yijunjie/Dev/egg/examples/schedule/node_modules/egg/config/config.default.js",
      "start": "/Users/yijunjie/Dev/egg/examples/schedule/node_modules/egg/config/config.default.js",
      "stop": "/Users/yijunjie/Dev/egg/examples/schedule/node_modules/egg/config/config.default.js"
    },
    "private": "/Users/yijunjie/Dev/egg/examples/schedule/node_modules/egg/config/config.default.js"
  },
  "baseDir": "/Users/yijunjie/Dev/egg/examples/schedule/node_modules/egg/config/config.default.js",
  "HOME": "/Users/yijunjie/Dev/egg/examples/schedule/node_modules/egg/config/config.default.js",
  "rundir": "/Users/yijunjie/Dev/egg/examples/schedule/node_modules/egg/config/config.default.js",
  "dump": {
    "ignore": "/Users/yijunjie/Dev/egg/examples/schedule/node_modules/egg/config/config.default.js"
  },
  "confusedConfigurations": {
    "bodyparser": "/Users/yijunjie/Dev/egg/examples/schedule/node_modules/egg/config/config.default.js",
    "notFound": "/Users/yijunjie/Dev/egg/examples/schedule/node_modules/egg/config/config.default.js",
    "sitefile": "/Users/yijunjie/Dev/egg/examples/schedule/node_modules/egg/config/config.default.js",
    "middlewares": "/Users/yijunjie/Dev/egg/examples/schedule/node_modules/egg/config/config.default.js",
    "httpClient": "/Users/yijunjie/Dev/egg/examples/schedule/node_modules/egg/config/config.default.js"
  },
  "notfound": {
    "pageUrl": "/Users/yijunjie/Dev/egg/examples/schedule/node_modules/egg/config/config.default.js"
  },
  "siteFile": {
    "/favicon.ico": "/Users/yijunjie/Dev/egg/examples/schedule/node_modules/egg/config/config.default.js"
  },
  "bodyParser": {
    "enable": "/Users/yijunjie/Dev/egg/examples/schedule/node_modules/egg/config/config.default.js",
    "encoding": "/Users/yijunjie/Dev/egg/examples/schedule/node_modules/egg/config/config.default.js",
    "formLimit": "/Users/yijunjie/Dev/egg/examples/schedule/node_modules/egg/config/config.default.js",
    "jsonLimit": "/Users/yijunjie/Dev/egg/examples/schedule/node_modules/egg/config/config.default.js",
    "strict": "/Users/yijunjie/Dev/egg/examples/schedule/node_modules/egg/config/config.default.js",
    "queryString": {
      "arrayLimit": "/Users/yijunjie/Dev/egg/examples/schedule/node_modules/egg/config/config.default.js",
      "depth": "/Users/yijunjie/Dev/egg/examples/schedule/node_modules/egg/config/config.default.js",
      "parameterLimit": "/Users/yijunjie/Dev/egg/examples/schedule/node_modules/egg/config/config.default.js"
    }
  },
  "logger": {
    "dir": "/Users/yijunjie/Dev/egg/examples/schedule/node_modules/egg/config/config.default.js",
    "encoding": "/Users/yijunjie/Dev/egg/examples/schedule/node_modules/egg/config/config.default.js",
    "env": "/Users/yijunjie/Dev/egg/examples/schedule/node_modules/egg/config/config.default.js",
    "level": "/Users/yijunjie/Dev/egg/examples/schedule/node_modules/egg/config/config.default.js",
    "consoleLevel": "/Users/yijunjie/Dev/egg/examples/schedule/node_modules/egg/config/config.default.js",
    "disableConsoleAfterReady": "/Users/yijunjie/Dev/egg/examples/schedule/node_modules/egg/config/config.default.js",
    "outputJSON": "/Users/yijunjie/Dev/egg/examples/schedule/node_modules/egg/config/config.default.js",
    "buffer": "/Users/yijunjie/Dev/egg/examples/schedule/node_modules/egg/config/config.default.js",
    "appLogName": "/Users/yijunjie/Dev/egg/examples/schedule/node_modules/egg/config/config.default.js",
    "coreLogName": "/Users/yijunjie/Dev/egg/examples/schedule/node_modules/egg/config/config.default.js",
    "agentLogName": "/Users/yijunjie/Dev/egg/examples/schedule/node_modules/egg/config/config.default.js",
    "errorLogName": "/Users/yijunjie/Dev/egg/examples/schedule/node_modules/egg/config/config.default.js",
    "coreLogger": "/Users/yijunjie/Dev/egg/examples/schedule/node_modules/egg/config/config.default.js",
    "allowDebugAtProd": "/Users/yijunjie/Dev/egg/examples/schedule/node_modules/egg/config/config.default.js"
  },
  "httpclient": {
    "enableDNSCache": "/Users/yijunjie/Dev/egg/examples/schedule/node_modules/egg/config/config.default.js",
    "dnsCacheMaxLength": "/Users/yijunjie/Dev/egg/examples/schedule/node_modules/egg/config/config.default.js",
    "dnsCacheMaxAge": "/Users/yijunjie/Dev/egg/examples/schedule/node_modules/egg/config/config.default.js",
    "request": {
      "timeout": "/Users/yijunjie/Dev/egg/examples/schedule/node_modules/egg/config/config.default.js"
    },
    "httpAgent": {
      "keepAlive": "/Users/yijunjie/Dev/egg/examples/schedule/node_modules/egg/config/config.default.js",
      "freeSocketKeepAliveTimeout": "/Users/yijunjie/Dev/egg/examples/schedule/node_modules/egg/config/config.default.js",
      "maxSockets": "/Users/yijunjie/Dev/egg/examples/schedule/node_modules/egg/config/config.default.js",
      "maxFreeSockets": "/Users/yijunjie/Dev/egg/examples/schedule/node_modules/egg/config/config.default.js"
    },
    "httpsAgent": {
      "keepAlive": "/Users/yijunjie/Dev/egg/examples/schedule/node_modules/egg/config/config.default.js",
      "freeSocketKeepAliveTimeout": "/Users/yijunjie/Dev/egg/examples/schedule/node_modules/egg/config/config.default.js",
      "maxSockets": "/Users/yijunjie/Dev/egg/examples/schedule/node_modules/egg/config/config.default.js",
      "maxFreeSockets": "/Users/yijunjie/Dev/egg/examples/schedule/node_modules/egg/config/config.default.js"
    }
  },
  "coreMiddleware": "/Users/yijunjie/Dev/egg/examples/schedule/node_modules/egg/config/config.default.js",
  "workerStartTimeout": "/Users/yijunjie/Dev/egg/examples/schedule/node_modules/egg/config/config.default.js",
  "cluster": {
    "listen": {
      "path": "/Users/yijunjie/Dev/egg/examples/schedule/node_modules/egg/config/config.default.js",
      "port": "/Users/yijunjie/Dev/egg/examples/schedule/node_modules/egg/config/config.default.js",
      "hostname": "/Users/yijunjie/Dev/egg/examples/schedule/node_modules/egg/config/config.default.js"
    }
  },
  "clusterClient": {
    "maxWaitTime": "/Users/yijunjie/Dev/egg/examples/schedule/node_modules/egg/config/config.default.js",
    "responseTimeout": "/Users/yijunjie/Dev/egg/examples/schedule/node_modules/egg/config/config.default.js"
  }
}